TEAM
…
## # A tibble: 6 x 4
##   Name            Opponent_Opponent DEFstat      DEFstat_count
##   <fct>           <fct>             <chr>                <dbl>
## 1 White, Lawrence UNI               Tackles_Solo             4
## 2 White, Lawrence UNI               Tackles_ASST             4
## 3 White, Lawrence UNI               Tackles_TFL              0
## 4 White, Lawrence UNI               Tackles_Sack             0
## 5 White, Lawrence UNI               Turnover_FF              0
## 6 White, Lawrence UNI               Turnover_FR              0

offClean <- offClean %>%
  pivot_longer(Rushing_ATT:Passing_INT, names_to = 'OFFstat', values_to = 'OFFstat_count')
(offClean)

## # A tibble: 2,145 x 4
##    Name          Opponent_Opponent OFFstat       OFFstat_count
##    <fct>         <fct>             <chr>                 <dbl>
##  1 Akers, Landen UNI               Rushing_ATT               0
##  2 Akers, Landen UNI               Rushing_YDS               0
##  3 Akers, Landen UNI               Rushing_TD                0
##  4 Akers, Landen UNI               Receiving_REC             1
##  5 Akers, Landen UNI               Receiving_YDS            21
##  6 Akers, Landen UNI               Receiving_TD              0
##  7 Akers, Landen UNI               Passing_CMP              NA
##  8 Akers, Landen UNI               Passing_ATT              NA
##  9 Akers, Landen UNI               Passing_YDS              NA
## 10 Akers, Landen UNI               Passing_TD               NA
## #  with 2,135 more rows
…
Joining - 1

TacklesdefClean <- defClean %>%
  filter(DEFstat == "Tackles_Solo") %>%
  group_by(Name) %>%
  summarize(total_tackles = sum(DEFstat_count)) %>%
  arrange(total_tackles)

## `summarise()` ungrouping output (override with `.groups` argument)

TacklesdefClean

## # A tibble: 43 x 2
##    Name                   total_tackles
##    <fct>                          <dbl>
##  1 Rus, Jared                         0
##  2 Downing, Trevor                    1
##  3 Greene, Conner                     1
##  4 Hall, Breece                       1
##  5 Pettway, La'Michael                1
##  6 Pulvermacher, Chandler             1
##  7 Robertson, Tucker                  1
##  8 Shaw Jr., Sean                     1
##  9 Spears, Tory                       1
## 10 Sutton, Tymar                      1
## #  with 33 more rows

OffBio <- offClean %>% left_join(bioClean) 

## Joining, by = "Name"

OffBio

## # A tibble: 2,145 x 12
##    Name  Opponent_Oppone OFFstat OFFstat_count Position Height_Feet
##    <chr> <fct>            <chr>           <dbl> <chr>          <dbl>
##  1 Aker UNI              Rushin             0 Wide Re           6
##  2 Aker UNI              Rushin             0 Wide Re           6
##  3 Aker UNI              Rushin             0 Wide Re           6
##  4 Aker UNI              Receiv             1 Wide Re           6
##  5 Aker UNI              Receiv            21 Wide Re           6
##  6 Aker UNI              Receiv             0 Wide Re           6
##  7 Aker UNI              Passin            NA Wide Re           6
##  8 Aker UNI              Passin            NA Wide Re           6
##  9 Aker UNI              Passin            NA Wide Re           6
## 10 Aker UNI              Passin            NA Wide Re           6
## #  with 2,135 more rows, and 6 more variables: Height_Inches <dbl>,
## #   Weight <chr>, Class <chr>, City <chr>, State <chr>, Highschool <chr>
…
## # A tibble: 6 x 4
##   Name             Opponent_Opponent OFFstat       OFFstat_count
##   <fct>            <fct>             <chr>                 <dbl>
## 1 Jones, Deshaunte Iowa              Receiving_REC             1
## 2 Jones, Deshaunte Iowa              Receiving_YDS            31
## 3 Jones, Deshaunte Iowa              Receiving_TD              0
## 4 Jones, Deshaunte Iowa              Rushing_ATT              NA
## 5 Jones, Deshaunte Iowa              Rushing_YDS              NA
## 6 Jones, Deshaunte Iowa              Rushing_TD               NA

Cleaning Biography 2018 Data

OldBiography

## # A tibble: 123 x 7
##    Name         Position     Height Weight Class       Hometown       Highschool
##    <chr>        <chr>        <chr>  <chr>  <chr>       <chr>          <chr>     
##  1 Akers, Land Wide Receiv 6-0    192    Redshirt S Cedar Rapids, Washington
##  2 Allen, Chase Tight End    6-7    240    Redshirt S Nixa, Mo.      Nixa      
##  3 Alt, Gerry   Offensive L 6-2    290    Redshirt F Cedar Rapids, Washington
##  4 Anderson, C Tight End    6-4    250    Redshirt S League City,  Clear Fal
##  5 Assalley, C Placekicker  6-0    191    Redshirt S Naperville, I Central   
##  6 Austin, Aar Linebacker   5-11   205    Redshirt S Walnut, Calif. Bishop Am
##  7 Azunna, Arn Defensive B 6-0    192    Redshirt S Grand Prairie Lake Ridge
##  8 Bailey, Cor Defensive E 6-3    224    Redshirt F Clarksdale, M Clarksdale
##  9 Bailey, JaQ Defensive E 6-2    251    Junior      Jacksonville, Raines    
## 10 Bailey, Jos Defensive L 6-2    284    Redshirt S Jacksonville, Raines    
## #  with 113 more rows
…
OffBio2018 <- OldbioClean %>% left_join(OldoffClean)

## Joining, by = "Name"

OffBio2018

## # A tibble: 1,902 x 12
##    Name  Position Height_Feet Height_Inches Weight Class City  State Highschool
##    <chr> <chr>          <dbl>         <dbl> <chr>  <chr> <chr> <chr> <chr>     
##  1 Aker Wide Re           6             0 192    Reds Ceda " Io Washington
##  2 Aker Wide Re           6             0 192    Reds Ceda " Io Washington
##  3 Aker Wide Re           6             0 192    Reds Ceda " Io Washington
##  4 Aker Wide Re           6             0 192    Reds Ceda " Io Washington
##  5 Aker Wide Re           6             0 192    Reds Ceda " Io Washington
##  6 Aker Wide Re           6             0 192    Reds Ceda " Io Washington
##  7 Aker Wide Re           6             0 192    Reds Ceda " Io Washington
##  8 Aker Wide Re           6             0 192    Reds Ceda " Io Washington
##  9 Aker Wide Re           6             0 192    Reds Ceda " Io Washington
## 10 Aker Wide Re           6             0 192    Reds Ceda " Io Washington
## #  with 1,892 more rows, and 3 more variables: Opponent_Opponent <fct>,
## #   OFFstat <chr>, OFFstat_count <dbl>

total2018 <- OffBio2018 %>% left_join(OlddefClean)

## Joining, by = c("Name", "Opponent_Opponent")

total2018

## # A tibble: 8,678 x 14
##    Name  Position Height_Feet Height_Inches Weight Class City  State Highschool
##    <chr> <chr>          <dbl>         <dbl> <chr>  <chr> <chr> <chr> <chr>     
##  1 Aker Wide Re           6             0 192    Reds Ceda " Io Washington
##  2 Aker Wide Re           6             0 192    Reds Ceda " Io Washington
##  3 Aker Wide Re           6             0 192    Reds Ceda " Io Washington
##  4 Aker Wide Re           6             0 192    Reds Ceda " Io Washington
##  5 Aker Wide Re           6             0 192    Reds Ceda " Io Washington
##  6 Aker Wide Re           6             0 192    Reds Ceda " Io Washington
##  7 Aker Wide Re           6             0 192    Reds Ceda " Io Washington
##  8 Aker Wide Re           6             0 192    Reds Ceda " Io Washington
##  9 Aker Wide Re           6             0 192    Reds Ceda " Io Washington
## 10 Aker Wide Re           6             0 192    Reds Ceda " Io Washington
## #  with 8,668 more rows, and 5 more variables: Opponent_Opponent <fct>,
## #   OFFstat <chr>, OFFstat_count <dbl>, DEFstat <chr>, DEFstat_count <dbl>

newtotal2018 <- total2018 %>% 
  select(Name, OFFstat_count) %>%
  group_by(Name) %>%
  summarize(total = sum(OFFstat_count))

## `summarise()` ungrouping output (override with `.groups` argument)

newtotal2018

## # A tibble: 123 x 2
##    Name               total
##    <chr>              <dbl>
##  1 Akers, Landen         NA
##  2 Allen, Chase          NA
##  3 Alt, Gerry            NA
##  4 Anderson, Cole        NA
##  5 Assalley, Connor      NA
##  6 Austin, Aaron         NA
##  7 Azunna, Arnold        NA
##  8 Bailey, Cordarrius    NA
##  9 Bailey, JaQuan        NA
## 10 Bailey, Joshua        NA
## #  with 113 more rows
…
